#169 - Armor | Nimscodd

owner = A06
controller = A06
add_core = A06
culture = cliff_gnome
religion = the_thought

hre = no

base_tax = 10
base_production = 10
base_manpower = 7

trade_goods = glass
capital = ""

is_city = yes






