#313 - Soroka

owner = A72
controller = A72
add_core = A72
culture = arannese
religion = regent_court

hre = yes

base_tax = 4
base_production = 4
base_manpower = 3

trade_goods = salt

capital = ""

is_city = yes









