#91 - Hainaut | 

owner = A09
controller = A09
add_core = A09
culture = sorncosti
religion = regent_court
hre = no
base_tax = 3
base_production = 3
trade_goods = wool
base_manpower = 3
capital = ""
is_city = yes
latent_trade_goods = {
	coal
}





