amldihr_1 = {
	slot = 1
	generic = no
	ai = yes
	potential = {
		tag = I01
	}
	
	I01_ancestors_dues = {
		icon = mission_writing_book
		ai = yes
		position = 2
		required_missions = {
			I01_amldihr_revival
		}
		provinces_to_highlight = {
			province_id = 4128
		}
		trigger = {
			4128 = {
				owned_by = ROOT
			}
			4119 = {
				owned_by = ROOT
				religion = ancestor_worship
				culture_group = dwarven
			}
			2931 = {
				owned_by = ROOT
				religion = ancestor_worship
				culture_group = dwarven
			}
			2963 = {
				owned_by = ROOT
				religion = ancestor_worship
				culture_group = dwarven
			}
		}
		effect = {
			4128 = {
				add_province_modifier = {
					name = amldihr_hall_of_the_ancestors
					duration = -1
				}
			}
		}
	}
	
	I01_vazkron_restoration = {
		icon = mission_armor_choice
		ai = yes
		position = 3
		required_missions = {
			I01_a_kings_rock
		}
		provinces_to_highlight = {
			province_id = 4122
		}
		trigger = {
			4122 = {
				owned_by = ROOT
			}
			amldihr_area = {
				fort_level = 2
				type = all
			}
			fortification_expert = 2
		}
		effect = {
			amldihr_area = {
				add_province_modifier = {
					name = amldihr_vazkron_restoration
					duration = -1
				}
			}
		}
	}
	
	I01_the_citadel_hold = {
		icon = mission_armoury
		ai = yes
		position = 4
		required_missions = {
			I01_vazkron_restoration
		}
		provinces_to_highlight = {
			province_id = 4122
		}
		trigger = {
			4122 = {
				owned_by = ROOT
			}
			num_of_owned_provinces_with = {
				value = 4
				trade_goods = iron
				base_production = 5
			}
			num_of_owned_provinces_with = {
				value = 1
				trade_goods = mithril
				base_production = 15
			}
		}
		effect = {
			amldihr_area = {
				remove_province_modifier = amldihr_vazkron_restoration
				add_province_modifier = {
					name = amldihr_the_citadel_hold
					duration = -1
				}
			}
		}
	}
	
	I01_the_amldavhad_guard = {
		icon = mission_warrior_gold
		ai = yes
		position = 5
		required_missions = {
			I01_the_citadel_hold
		}
		trigger = {
			manpower = 50
			has_reform = assembly_of_holds_reform
			has_global_modifier_value = {
				which = discipline
				value = 0.1
			}
		}
		effect = {
			custom_tooltip = I01_unlock_amldavhad_guard_tooltip
			hidden_effect = {
				set_country_flag = amldahvad_guard_founded
			}
		}
	}
	
	I01_gems_of_serpentreach = {
		icon = mission_heated_battle
		ai = yes
		position = 6
		required_missions = {
			I01_the_arg_junction
		}
		provinces_to_highlight = {
			region = serpentreach_region
		}
		trigger = {
			num_of_provinces_owned_or_owned_by_non_sovereign_subjects_with = {
				region = serpentreach_region
				value = 15
			}
		}
		effect = {
			if = {
				limit = {
					4093 = {
						NOT = { owned_by = ROOT }
						owner = {
							culture_group = dwarven
							NOT = { total_development = 100 }
						}
					}
				}
				4093 = {
					owner = {
						reverse_add_casus_belli = {
							target = ROOT
							type = cb_vassalize_mission
							months = 120
						}
					}
				}
			}
			else_if = {
				limit = {
					4093 = {
						NOT = { owned_by = ROOT }
						NOT = { is_core = ROOT }
						NOT = { is_permanent_claim = ROOT }
					}
				}
				4093 = {
					add_permanent_claim = ROOT
				}
			}
			else = {
				add_adm_power = 75
			}
		}
	}
	
	I01_empire_of_many_capitals = {
		icon = mission_guarded_market
		ai = yes
		position = 8
		required_missions = {
			I01_the_empires_gem
		}
		trigger = {
			num_of_provinces_owned_or_owned_by_non_sovereign_subjects_with = {
				value = 20
				OR = {
					has_terrain = dwarven_hold
					has_terrain = dwarven_hold_surface
				}
				development = 50
			}
		}
		effect = {
			add_country_modifier = {
				name = amldihr_empire_of_many_capitals
				duration = 9125
			}
		}
	}
}
amldihr_2 = {
	slot = 2
	generic = no
	ai = yes
	potential = {
		tag = I01
	}
	
	I01_amldihr_revival = {
		icon = mission_early_game_buildings
		ai = yes
		position = 1
		required_missions = {}
		provinces_to_highlight = {
			area = amldihr_area
		}
		trigger = {
			amldihr_area = {
				NOT = { has_province_modifier = ruined_hold }
				NOT = { has_province_modifier = infested_hold }
				culture_group = dwarven
				type = all
			}
		}
		effect = {
			add_stability_or_adm_power = yes
			add_prestige = 25
		}
	}
	
	I01_a_kings_rock = {
		icon = mission_early_modern_university
		ai = yes
		position = 2
		required_missions = {
			I01_amldihr_revival
		}
		trigger = {
			4119 = {
				has_dwarven_hold_3 = yes
			}
		}
		effect = {
			amldihr_area = {
				add_province_modifier = {
					name = growth_of_capital
					duration = 3650
				}
			}
		}
	}
	
	I01_amlharazs_halls = {
		icon = mission_rb_trinity_college_dublin
		ai = yes
		position = 3
		required_missions = {
			I01_a_kings_rock
		}
		provinces_to_highlight = {
			province_id = 4149
		}
		trigger = {
			4149 = {
				owned_by = ROOT
				has_building = courthouse
			}
			OR = {
				statesman = 3
				has_reform = assembly_of_holds_reform
			}
		}
		effect = {
			4149 = {
				add_province_modifier = {
					name = amldihr_amlharaz_halls
					duration = -1
				}
			}
		}
	}
	
	I01_hold_fit_for_a_high_king = {
		icon = mission_monarch_diplomacy
		ai = yes
		position = 4
		required_missions = {
			I01_amlharazs_halls
		}
		trigger = {
			4119 = {
				has_dwarven_hold_6 = yes
			}
			amldihr_area = {
				development = 45
				type = all
			}
		}
		effect = {
			add_country_modifier = {
				name = amldihr_hold_fit_for_a_high_king
				duration = 3650
			}
		}
	}
	
	I01_the_arg_junction = {
		icon = mission_rb_rein_in_the_highland_clans
		ai = yes
		position = 5
		required_missions = {
			I01_declare_emergency_assembly
		}
		provinces_to_highlight = {
			OR = {
				province_id = 4103
				province_id = 2981
			}
		}
		trigger = {
			4103 = {
				OR = {
					owned_by = ROOT
					owner = {
						is_subject_of = ROOT
					}
				}
			}
			2981 = {
				OR = {
					owned_by = ROOT
					owner = {
						is_subject_of = ROOT
					}
				}
			}
		}
		effect = {
			custom_tooltip = I01_claim_serpentreach_rails_tooltip
			add_adm_power = 50
			hidden_effect = {
				if = {
					limit = {
						has_country_flag = I01_emergency_assembly_serpentreach
					}
					serpentreach_region = {
						limit = {
							NOT = { is_core = ROOT }
							NOT = { is_permanent_claim = ROOT }
							has_terrain = dwarven_road
						}
						add_permanent_claim = ROOT
					}
				}
				else = {
					argrod_9_11_area = {
						limit = {
							NOT = { is_core = ROOT }
							NOT = { is_permanent_claim = ROOT }
						}
						add_permanent_claim = ROOT
					}
					argrod_14_16_area = {
						limit = {
							NOT = { is_core = ROOT }
							NOT = { is_permanent_claim = ROOT }
						}
						add_permanent_claim = ROOT
					}
					argrod_junction_area = {
						limit = {
							NOT = { is_core = ROOT }
							NOT = { is_permanent_claim = ROOT }
						}
						add_permanent_claim = ROOT
					}
				}
			}
		}
	}
	
	I01_volcanic_hold = {
		icon = mission_burning_separation
		ai = yes
		position = 6
		required_missions = {
			I01_the_arg_junction
		}
		provinces_to_highlight = {
			OR = {
				area = argrod_junction_area
				area = argrod_14_16_area
			}
		}
		trigger = {
			argrod_junction_area = {
				OR = {
					owned_by = ROOT
					owner = {
						is_subject_of = ROOT
					}
				}
				type = all
			}
			argrod_14_16_area = {
				OR = {
					owned_by = ROOT
					owner = {
						is_subject_of = ROOT
					}
				}
				type = all
			}
		}
		effect = {
			if = {
				limit = {
					4039 = {
						NOT = { owned_by = ROOT }
						owner = {
							culture_group = dwarven
							NOT = { total_development = 100 }
						}
					}
				}
				4039 = {
					owner = {
						reverse_add_casus_belli = {
							target = ROOT
							type = cb_vassalize_mission
							months = 120
						}
					}
				}
			}
			else_if = {
				limit = {
					4039 = {
						NOT = { owned_by = ROOT }
						NOT = { is_core = ROOT }
						NOT = { is_permanent_claim = ROOT }
					}
				}
				4039 = {
					add_permanent_claim = ROOT
				}
			}
			else = {
				add_adm_power = 75
			}
		}
	}
	
	I01_the_empires_gem = {
		icon = mission_rb_inland_india
		ai = yes
		position = 7
		required_missions = {
			I01_volcanic_hold
			I01_gems_of_serpentreach
		}
		provinces_to_highlight = {
			OR = {
				province_id = 4039
				province_id = 2973
				province_id = 4100
				province_id = 4093
				province_id = 2942
				province_id = 4238
			}
		}
		trigger = {
			num_of_provinces_owned_or_owned_by_non_sovereign_subjects_with = {
				region = serpentreach_region
				OR = {
					has_terrain = dwarven_hold
					has_terrain = dwarven_hold_surface
				}
				value = 4
			}
		}
		effect = {
			custom_tooltip = I01_dwarven_vassals_opinion_serpentreach_tooltip
			add_adm_power = 100
			hidden_effect = {
				every_country = {
					limit = {
						is_subject_of = ROOT
						culture_group = dwarven
						capital_scope = {
							region = serpentreach_region
						}
					}
					add_opinion = {
						who = ROOT
						modifier = amldihr_dwarven_subject
					}
				}
			}
		}
	}
}
amldihr_3 = {
	slot = 3
	generic = no
	ai = yes
	potential = {
		tag = I01
	}
	
	I01_the_dual_tunnels = {
		icon = mission_build_up_to_force_limit
		ai = yes
		position = 1
		required_missions = {}
		provinces_to_highlight = {
			OR = {
				province_id = 4128
				province_id = 2992
				province_id = 4122
				province_id = 2933
			}
		}
		trigger = {
			4128 = {
				owned_by = ROOT
			}
			2992 = {
				owned_by = ROOT
			}
			4122 = {
				owned_by = ROOT
			}
			2933 = {
				owned_by = ROOT
			}
		}
		effect = {
			custom_tooltip = I01_claim_west_dwarv_rails_tooltip
			hidden_effect = {
				west_dwarovar_region = {
					limit = {
						NOT = { is_core = ROOT }
						NOT = { is_permanent_claim = ROOT }
						has_terrain = dwarven_road
					}
					add_permanent_claim = ROOT
				}
			}
		}
	}
	
	I01_amloz_rails = {
		icon = mission_assemble_an_army
		ai = yes
		position = 2
		required_missions = {
			I01_the_dual_tunnels
		}
		provinces_to_highlight = {
			OR = {
				area = dagrinrod_4_6_area
				province_id = 2992
			}
		}
		trigger = {
			dagrinrod_4_6_area = {
				owned_by = ROOT
				type = all
			}
			2992 = {
				owned_by = ROOT
			}
		}
		effect = {
			if = {
				limit = {
					2931 = {
						NOT = { owned_by = ROOT }
						owner = {
							culture_group = dwarven
							NOT = { total_development = 100 }
						}
					}
				}
				2931 = {
					owner = {
						reverse_add_casus_belli = {
							target = ROOT
							type = cb_vassalize_mission
							months = 120
						}
					}
				}
			}
			else_if = {
				limit = {
					2931 = {
						NOT = { owned_by = ROOT }
						NOT = { is_core = ROOT }
						NOT = { is_permanent_claim = ROOT }
					}
				}
				2931 = {
					add_permanent_claim = ROOT
				}
			}
			else = {
				add_adm_power = 75
			}
		}
	}
	
	I01_the_sapphire_hold = {
		icon = mission_star_comet
		ai = yes
		position = 3
		required_missions = {
			I01_amloz_rails
		}
		provinces_to_highlight = {
			province_id = 4020
		}
		trigger = {
			OR = {
				4020 = {
					owner = {
						is_neighbor_of = ROOT
					}
				}
				4020 = {
					owned_by = ROOT
				}
			}
		}
		effect = {
			custom_tooltip = I01_northern_amloz_tooltip
			if = {
				limit = {
					4020 = {
						owned_by = ROOT
					}
				}
				add_country_modifier = {
					name = amldihr_sapphire_hold
					duration = 5475
				}
			}
			else = {
				limit = {
					4020 = {
						owner = {
							is_neighbor_of = ROOT
						}
					}
				}
				4020 = {
					owner = {
						reverse_add_casus_belli = {
							target = ROOT
							type = cb_vassalize_mission
							months = 120
						}
					}
				}
			}			
		}
	}
	
	I01_declare_emergency_assembly = {
		icon = mission_confrontation
		ai = yes
		position = 4
		required_missions = {
			I01_western_dwarovar_ascendant
			I01_amlharazs_halls
		}
		trigger = {
			has_reform = assembly_of_holds_reform
			num_of_provinces_owned_or_owned_by_non_sovereign_subjects_with = {
				value = 10
				OR = {
					has_terrain = dwarven_hold
					has_terrain = dwarven_hold_surface
				}
			}
		}
		effect = {
			country_event = {
				id = amldihr.1
			}
		}
	}
	
	I01_the_kronium_glove = {
		icon = mission_discussion_arch
		ai = yes
		position = 6
		required_missions = {
			I01_declare_emergency_assembly
		}
		trigger = {
			num_of_provinces_owned_or_owned_by_non_sovereign_subjects_with = {
				region = serpentreach_region
				OR = {
					has_terrain = dwarven_hold
					has_terrain = dwarven_hold_surface
				}
				value = 5
			}
			num_of_provinces_owned_or_owned_by_non_sovereign_subjects_with = {
				region = middle_dwarovar_region
				OR = {
					has_terrain = dwarven_hold
					has_terrain = dwarven_hold_surface
				}
				value = 5
			}
		}
		effect = {
			add_country_modifier = {
				name = amldihr_the_kronium_glove
				duration = 3650
			}
			custom_tooltip = I01_dwarven_vassals_opinion_tooltip
			hidden_effect = {
				every_country = {
					limit = {
						is_subject_of = ROOT
						culture_group = dwarven
					}
					add_opinion = {
						who = ROOT
						modifier = amldihr_dwarven_subject
					}
				}
			}
		}
	}
	
	I01_a_high_king = {
		icon = mission_thinking_king
		ai = yes
		position = 8
		required_missions = {
			I01_the_empires_gem
			I01_middle_dwarovar_ascendant
			I01_the_kronium_glove
		}
		trigger = {
			num_of_owned_provinces_with = {
				value = 25
				OR = {
					has_terrain = dwarven_hold
					has_terrain = dwarven_hold_surface
				}
			}
		}
		effect = {
			country_event = {
				id = amldihr.2
			}
			add_country_modifier = {
				name = amldihr_a_high_king
				duration = 18250
			}
		}
	}
}
amldihr_4 = {
	slot = 4
	generic = no
	ai = yes
	potential = {
		tag = I01
	}
	
	I01_amlvaz_rails = {
		icon = mission_landsknecht_soldier
		ai = yes
		position = 2
		required_missions = {
			I01_the_dual_tunnels
		}
		provinces_to_highlight = {
			OR = {
				area = dwarovrod_7_9_area
				area = dwarovrod_10_12_area
			}
		}
		trigger = {
			dwarovrod_7_9_area = {
				owned_by = ROOT
				type = all
			}
			dwarovrod_10_12_area = {
				owned_by = ROOT
				type = all
			}
		}
		effect = {
			if = {
				limit = {
					2868 = {
						NOT = { owned_by = ROOT }
						owner = {
							culture_group = dwarven
							NOT = { total_development = 100 }
						}
					}
				}
				2868 = {
					owner = {
						reverse_add_casus_belli = {
							target = ROOT
							type = cb_vassalize_mission
							months = 120
						}
					}
				}
			}
			else_if = {
				limit = {
					2868 = {
						NOT = { owned_by = ROOT }
						NOT = { is_core = ROOT }
						NOT = { is_permanent_claim = ROOT }
					}
				}
				2868 = {
					add_permanent_claim = ROOT
				}
			}
			else = {
				add_adm_power = 75
			}
		}
	}
	
	I01_western_dwarovar_ascendant = {
		icon = mission_cannons_firing
		ai = yes
		position = 3
		required_missions = {
			I01_amloz_rails
			I01_amlvaz_rails
		}
		trigger = {
			num_of_provinces_owned_or_owned_by_non_sovereign_subjects_with = {
				value = 3
				OR = {
					has_terrain = dwarven_hold
					has_terrain = dwarven_hold_surface
				}
				NOT = {
					area = amldihr_area
				}
			}
		}
		effect = {
			custom_tooltip = I01_claim_west_dwarv_holds_tooltip
			hidden_effect = {
				west_dwarovar_region = {
					limit = {
						NOT = { is_core = ROOT }
						NOT = { is_permanent_claim = ROOT }
						OR = {
							has_terrain = dwarven_hold
							has_terrain = dwarven_hold_surface
						}
					}
					add_permanent_claim = ROOT
				}
			}
			4119 = {
				add_base_tax = 1
				add_base_production = 1
				add_base_manpower = 1
			}
		}
	}
	
	I01_the_industrial_dwarovar = {
		icon = mission_mechanical_mining
		ai = yes
		position = 4
		required_missions = {
			I01_western_dwarovar_ascendant
		}
		provinces_to_highlight = {
			OR = {
				province_id = 4236
				province_id = 2931
			}
		}
		trigger = {
			4236 = {
				OR = {
					owned_by = ROOT
					owner = {
						is_subject_of = ROOT
					}
				}
				culture_group = dwarven
				development = 50
			}
			2931 = {
				OR = {
					owned_by = ROOT
					owner = {
						is_subject_of = ROOT
					}
				}
				culture_group = dwarven
				development = 50
			}
		}
		effect = {
			add_country_modifier = {
				name = amldihr_the_industrial_dwarovar
				duration = 9125
			}
		}
	}
	
	I01_cross_the_vazok = {
		icon = mission_conquer_romania
		ai = yes
		position = 5
		required_missions = {
			I01_declare_emergency_assembly
		}
		provinces_to_highlight = {
			OR = {
				province_id = 2884
				province_id = 2885
			}
		}
		trigger = {
			2884 = {
				OR = {
					owned_by = ROOT
					owner = {
						is_subject_of = ROOT
					}
				}
			}
			2885 = {
				OR = {
					owned_by = ROOT
					owner = {
						is_subject_of = ROOT
					}
				}
			}
		}
		effect = {
			custom_tooltip = I01_claim_middle_dwarovar_rails_tooltip
			add_adm_power = 50
			hidden_effect = {
				if = {
					limit = {
						has_country_flag = I01_emergency_assembly_middle_dwarovar
					}
					middle_dwarovar_region = {
						limit = {
							NOT = { is_core = ROOT }
							NOT = { is_permanent_claim = ROOT }
							has_terrain = dwarven_road
						}
						add_permanent_claim = ROOT
					}
				}
				else = {
					dwarovrod_27_29_area = {
						limit = {
							NOT = { is_core = ROOT }
							NOT = { is_permanent_claim = ROOT }
						}
						add_permanent_claim = ROOT
					}
					dwarovrod_30_32_area = {
						limit = {
							NOT = { is_core = ROOT }
							NOT = { is_permanent_claim = ROOT }
						}
						add_permanent_claim = ROOT
					}
				}
			}
		}
	}
	
	I01_the_middle_push = {
		icon = mission_recruit_streltsy
		ai = yes
		position = 6
		required_missions = {
			I01_cross_the_vazok
		}
		provinces_to_highlight = {
			OR = {
				area = dwarovrod_27_29_area
				area = dwarovrod_30_32_area
			}
		}
		trigger = {
			dwarovrod_27_29_area = {
				OR = {
					owned_by = ROOT
					owner = {
						is_subject_of = ROOT
					}
				}
				type = all
			}
			dwarovrod_30_32_area = {
				OR = {
					owned_by = ROOT
					owner = {
						is_subject_of = ROOT
					}
				}
				type = all
			}
		}
		effect = {
			if = {
				limit = {
					4124 = {
						NOT = { owned_by = ROOT }
						owner = {
							culture_group = dwarven
							NOT = { total_development = 100 }
						}
					}
				}
				4124 = {
					owner = {
						reverse_add_casus_belli = {
							target = ROOT
							type = cb_vassalize_mission
							months = 120
						}
					}
				}
			}
			else_if = {
				limit = {
					4124 = {
						NOT = { owned_by = ROOT }
						NOT = { is_core = ROOT }
						NOT = { is_permanent_claim = ROOT }
					}
				}
				4124 = {
					add_permanent_claim = ROOT
				}
			}
			else = {
				add_adm_power = 75
			}
		}
	}
	
	I01_middle_dwarovar_ascendant = {
		icon = mission_unite_home_region
		ai = yes
		position = 7
		required_missions = {
			I01_the_middle_push
			I01_golden_despot
		}
		provinces_to_highlight = {
			OR = {
				province_id = 4217
				province_id = 4124
				province_id = 2914
				province_id = 4218
				province_id = 4078
			}
		}
		trigger = {
			num_of_provinces_owned_or_owned_by_non_sovereign_subjects_with = {
				region = middle_dwarovar_region
				OR = {
					has_terrain = dwarven_hold
					has_terrain = dwarven_hold_surface
				}
				value = 4
			}
		}
		effect = {
			custom_tooltip = I01_dwarven_vassals_opinion_middle_dwarv_tooltip
			add_adm_power = 100
			hidden_effect = {
				every_country = {
					limit = {
						is_subject_of = ROOT
						culture_group = dwarven
						capital_scope = {
							region = middle_dwarovar_region
						}
					}
					add_opinion = {
						who = ROOT
						modifier = amldihr_dwarven_subject
					}
				}
			}
		}
	}
}
amldihr_5 = {
	slot = 5
	generic = no
	ai = yes
	potential = {
		tag = I01
	}
	
	I01_flooded_vale = {
		icon = mission_advance_to_the_dnieper
		ai = yes
		position = 1
		required_missions = {}
		provinces_to_highlight = {
			region = serpents_vale_region
		}
		trigger = {
			serpents_vale_region = {
				owned_by = ROOT
				is_core = ROOT
				type = all
			}
		}
		effect = {
			4119 = {
				add_base_tax = 1
				add_base_production = 1
				add_base_manpower = 1
			}
			add_prestige = 10
		}
	}
	
	I01_vales_bounty = {
		icon = mission_wine_monopolies
		ai = yes
		position = 2
		required_missions = {
			I01_flooded_vale
		}
		provinces_to_highlight = {
			region = serpents_vale_region
			NOT = { has_terrain = dwarven_road }
		}
		trigger = {
			custom_trigger_tooltip = {
				tooltip = I01_vales_bounty_tooltip
				serpents_vale_region = {
					OR = {
						has_terrain = dwarven_road
						has_manufactory_trigger = yes
					}
					type = all
				}
			}
			custom_trigger_tooltip = {
				tooltip = I01_irrigation_repaired_tooltip
				4119 = {
					has_province_modifier = dwarovar_granary
				}
			}
		}
		effect = {
			amldihr_area = {
				add_base_tax = 1
				add_base_production = 1
				add_base_manpower = 1
			}
			add_prestige = 25
		}
	}
	
	I01_quartz_anvil = {
		icon = mission_rb_unite_the_clans
		ai = yes
		position = 3
		required_missions = {}
		provinces_to_highlight = {
			province_id = 4208
		}
		trigger = {
			4208 = {
				OR = {
					owned_by = ROOT
					owner = {
						is_neighbor_of = ROOT
					}
				}
			}
		}
		effect = {
			if = {
				limit = {
					4208 = {
						NOT = { owned_by = ROOT }
						owner = {
							culture_group = dwarven
						}
					}
				}
				4208 = {
					owner = {
						reverse_add_casus_belli = {
							target = ROOT
							type = cb_vassalize_mission
							months = 120
						}
					}
				}
			}
			else_if = {
				limit = {
					4208 = {
						NOT = { owned_by = ROOT }
						NOT = { is_core = ROOT }
						NOT = { is_permanent_claim = ROOT }
					}
				}
				4208 = {
					add_permanent_claim = ROOT
				}
			}
			else = {
				add_adm_power = 75
			}
		}
	}
	
	I01_plug_the_pass = {
		icon = mission_portuguese_oman
		ai = yes
		position = 4
		required_missions = {
			I01_quartz_anvil
		}
		provinces_to_highlight = {
			OR = {
				province_id = 4198
				province_id = 4201
			}
		}
		trigger = {
			4198 = {
				OR = {
					owned_by = ROOT
					owner = {
						is_subject_of = ROOT
					}
				}
				fort_level = 2
			}
			4201 = {
				OR = {
					owned_by = ROOT
					owner = {
						is_subject_of = ROOT
					}
				}
				fort_level = 2
			}
		}
		effect = {
			4198 = {
				add_province_modifier = {
					name = amldihr_plugged_pass
					duration = 18250
				}
			}
			4201 = {
				add_province_modifier = {
					name = amldihr_plugged_pass
					duration = 18250
				}
			}
		}
	}
	
	I01_golden_despot = {
		icon = mission_african_gold
		ai = yes
		position = 6
		required_missions = {
			I01_cross_the_vazok
		}
		provinces_to_highlight = {
			province_id = 2914
		}
		trigger = {
			2914 = {
				OR = {
					owned_by = ROOT
					owner = {
						is_neighbor_of = ROOT
					}
				}
			}
		}
		effect = {
			if = {
				limit = {
					2914 = {
						NOT = { owned_by = ROOT }
						owner = {
							culture_group = dwarven
							NOT = { total_development = 100 }
						}
					}
				}
				2914 = {
					owner = {
						reverse_add_casus_belli = {
							target = ROOT
							type = cb_vassalize_mission
							months = 120
						}
					}
				}
			}
			else_if = {
				limit = {
					2914 = {
						NOT = { owned_by = ROOT }
						NOT = { is_core = ROOT }
						NOT = { is_permanent_claim = ROOT }
					}
				}
				2914 = {
					add_permanent_claim = ROOT
				}
			}
			else = {
				add_adm_power = 75
			}
		}
	}
	
	I01_an_amber_heart = {
		icon = mission_alone_in_the_wood
		ai = yes
		position = 8
		required_missions = {
			I01_middle_dwarovar_ascendant
		}
		provinces_to_highlight = {
			OR = {
				province_id = 4090
				province_id = 4242
			}
		}
		trigger = {
			4090 = {
				OR = {
					owned_by = ROOT
					owner = {
						is_subject_of = ROOT
					}
				}
			}
			4242 = {
				OR = {
					owned_by = ROOT
					owner = {
						is_subject_of = ROOT
					}
				}
			}
		}
		effect = {
			custom_tooltip = I01_claim_tree_of_stone_rails_tooltip
			hidden_effect = {
				tree_of_stone_region = {
					limit = {
						NOT = { is_core = ROOT }
						NOT = { is_permanent_claim = ROOT }
						OR = {
							has_terrain = dwarven_road
							has_terrain = dwarven_hold
							has_terrain = dwarven_hold_surface
						}
					}
					add_permanent_claim = ROOT
				}
			}
		}
	}
}