marrhold = {
	slot = 1
	generic = no
	ai = yes
	potential = {
		tag = B36
		
	}
	has_country_shield = yes
	
	marrhold_griffon_prince = {
		icon = mission_italian_condottiere
		ai = yes
		position = 1
		required_missions = { } 
		trigger = {
			mil = 4
	}
		effect = {
			add_country_modifier = {
				name = "marrhold_griffon_heroes"
				duration = 9125 #25 years
			}
		}
	}
	marrhold_griffon_knights = {
		icon = mission_sweat_fealty
		ai = yes
		position = 3
		required_missions = { marrhold_griffon_prince } 
		trigger = {
			895 = {
				fort_level = 2
				has_manpower_building_trigger = yes
				owned_by = ROOT
				is_core = ROOT
				}
			}
		effect = {
			add_country_modifier = {
				name = "marrhold_knights_griffon"
				duration = 27375 #75 years
				}
			set_country_flag = marrhold_griffon_knights
			custom_tooltip = marrhold_griffon_knights_reward_tt
			}
		}
	
	marrhold_revenge = {
		icon = mission_thinking_king
		ai = yes
		position = 4
		required_missions = {  }
		trigger = {
			any_neighbor_country = {
				war_with = ROOT
				culture_group = orcish
			}
		}
		effect = {
			country_event = {
					id = flavor_marrhold.1
				}
			}
		}
	
	
	marrhold_justice = {
		icon = mission_skull
		ai = yes
		position = 5
		required_missions = { marrhold_revenge }
		trigger = {
			any_neighbor_country = {
				war_with = ROOT
				culture_group = orcish
				any_owned_province = {
					is_capital = yes
					is_looted = yes
					devastation = 10
					controlled_by = ROOT
				}
			}
		}
		effect = {
			country_event = {
					id = flavor_marrhold.2
					days = 1
				}
			}
		}
	
	marrhold_rebirth = {
		icon = mission_build_up_to_force_limit
		ai = yes
		position = 6
		required_missions = { marrhold_justice }
		trigger = {
			heir_has_ruler_dynasty = yes
			heir_age = 12
		}
		effect = {
			country_event = {
					id = flavor_marrhold.3
					days = 1
				}
			increase_heir_dip_effect = yes
			increase_heir_mil_effect = yes
		}
	}
	
	marrhold_renaissanse = {
		icon = develop_our_capital
		ai = yes
		position = 7
		required_missions = {  }
		trigger = {
		num_of_owned_provinces_with = {
				value = 20
				culture = marrodic
			}
		}
		effect = {
		add_country_modifier = {
				name = "marrhold_cultural_renaissanse"
				duration = 9125 #25 years
				}
			}
	}
	
	marrhold_toast = {
		icon = mission_feast
		ai = yes
		position = 8
		required_missions = { marrhold_renaissanse }
		trigger = {
		is_year = 1492
		}
		effect = {
		add_country_modifier = {
				name = "marrhold_party"
				duration = 9125 #25 years
				}
				add_stability_or_adm_power = yes
			}
		
	}
	
	marrhold_auxiliaries = {
		icon = mission_armor_choice
		ai = yes
		position = 10
		required_missions = { marrhold_improvements }
		trigger = {
		num_of_cavalry = 12
		}
		effect = {
		add_country_modifier = {
				name = "marrhold_reestructure"
				duration = 3650 #10 years
				}
		add_estate_loyalty = {
				estate = estate_nobles
				loyalty = -20}
		add_estate_loyalty = {
				estate = estate_adventurers
				loyalty = 10}
			}
	}
	
	marrhold_angels = {
		icon = mission_brazilian_bandeirantes
		ai = yes
		position = 11
		required_missions = { marrhold_auxiliaries }
		trigger = {
		num_of_cavalry = 20
		}
		effect = {
		add_country_modifier = {
				name = "marrhold_salvation"
				duration = 7300 #20 years
				}
		}
	}
	
	marrhold_crimson_deluge = {
		icon = mission_star_comet
		ai = yes
		position = 12
		required_missions = {  }
		trigger = {
				OR = {
					has_global_flag = crimson_deluge_is_over
					has_global_flag = crimson_deluge_is_actively_happening
					}
				OR = {
					religion = regent_court
					religion = corinite
				}
			}
			effect = {
				if = {
					limit = {
						religion = regent_court
						NOT = { religion = corinite }		
							}
				add_country_modifier = {
				name = marrhold_religious_regent
				duration = 7300 #20 years
										}
					}
				else_if = {
				limit = {
						religion = corinite
						NOT = { religion = regent_court }
				}
				add_country_modifier = {
				name = marrhold_religious_corin
				duration = 7300 #20 years
										}
							}
				else = {
				add_country_modifier = {
				name = marrhold_religious_regent
				duration = 7300 #20 years
						}
				add_country_modifier = {
				name = marrhold_religious_corin
				duration = 7300 #20 years
						}
					}
				}
			}
				
	marrhold_religious_war = {
		icon = mission_destroyed_city
		ai = yes
		position = 13
		required_missions = { marrhold_crimson_deluge }
		trigger = {
		hre_leagues_enabled = yes
					OR = {
					in_league = regent_court
					in_league = corinite
						}
			}
		effect = {
			add_yearly_manpower = 5
			add_country_modifier = {
				name = marrhold_religious_war
				duration = 7300 #20 years
			}
		}
	}
	
	marrhold_Plan_B = {
		icon = mission_artificier_experience
		ai = yes
		position = 16
		required_missions = { marrhold_feather_academy }
			effect = {
			set_country_flag = marrhold_bombardier
			custom_tooltip = marrhold_bombardier_reward_tt
		}
		}
	}

marrhold_two = {
	slot = 2
	generic = no
	ai = yes
	potential = {
		tag = B36
		
	}
	has_country_shield = yes
	
	marrhold_valley = {
		icon = mission_rb_conquer_wales
		ai = yes
		position = 2
		required_missions = { marrhold_reclamation_day }
		provinces_to_highlight = {
			OR = {
				area = dryadsdale_area
			}
			NOT = {
				country_or_non_sovereign_subject_holds = ROOT
			}
		}
		trigger = {
			dryadsdale_area = {
				type = all
				country_or_non_sovereign_subject_holds = ROOT
			}
		}
		effect = {
			dryadsdale_area = {
				limit = {
					NOT = { culture = marrodic }
				}
				change_religion = regent_court
				change_culture = marrodic
			}		
		}
	}
	
	marrhold_stables = {
		icon = mission_novgorod_the_great
		ai = yes
		position = 4
		required_missions = { marrhold_griffon_knights marrhold_valley } 
		trigger = {
			any_owned_province = {
				development = 10
				has_building = farm_estate
			}
		}
		effect = {
			add_country_modifier = {
				name = marrhold_griffon_breeding
				duration = 7300 #20 years
			}
		}
	}
	
	marrhold_winged_generals = {
		icon = mission_protect_albania
		ai = yes
		position = 5
		required_missions = { marrhold_stables }
		trigger = {
			army_tradition = 40
			has_estate_privilege = estate_nobles_officer_corp
			num_of_generals = 2
			}
		effect = {
			add_country_modifier = {
				name = marrhold_winged_generals
				duration = -1 #permanent
				}
			}
		}
	
	marrhold_improvements = {
		icon = mission_have_two_subjects
		ai = yes
		position = 9
		required_missions = { marrhold_winged_generals }
		trigger = {
			has_global_modifier_value = {
				which = cavalry_power
				value = 0.4 }
			barracks = 5
			}
		effect = {
			add_country_modifier = {
				name = marrhold_imagination
				duration = 7300 #20 years
				}
			}
		}
		
	marrhold_steel_bird = {
		icon = mission_smith
		ai = yes
		position = 10
		required_missions = { marrhold_improvements }
		trigger = {
			weapons = 3
		}
		effect = {
			clr_country_flag = marrhold_griffon_knights
			set_country_flag = marrhold_steel_griffon
			custom_tooltip = marrhold_steel_griffon_reward_tt
		}
	}
		
	marrhold_screaming_eagles = {
		icon = mission_head_on_spike
		ai = yes
		position = 11
		required_missions = { marrhold_steel_bird }
		trigger = {
		army_tradition = 60
			}
		effect = {
			add_country_modifier = {
				name = marrhold_no_surrender
				duration = 7300 #20 years
				}
			}
	}
	
	marrhold_winged_army = {
		icon = mission_assemble_an_army
		ai = yes
		position = 12
		required_missions = { marrhold_angels marrhold_screaming_eagles marrhold_freedom }
		trigger = {
			OR = {
				army_tradition = 60
				army_professionalism = 0.4
			}
			}
		effect = {
			add_country_modifier = {
				name = marrhold_winged_army
				duration = -1
				}
			hidden_effect = {
				remove_country_modifier = marrhold_winged_generals
			}
			}
		}
	
	marrhold_feather_academy = {
		icon = mission_rb_the_bank_of_scotland
		ai = yes
		position = 15
		required_missions = { marrhold_winged_army }
		trigger = {
			895 = {
			has_building = university
					}
			OR = {
				army_organiser = 3
				army_reformer = 3
				commandant = 3
				grand_captain = 3
				recruitmaster = 3
				fortification_expert = 3
				quartermaster = 3
				}
			}
		effect = {
			add_country_modifier = {
				name = marrhold_feather_academy
				duration = 9125 #25 years
				}
		}
	}
	
	marrhold_sky_lancers = {
		icon = mission_cossack_cavalry
		ai = yes
		position = 16
		required_missions = { marrhold_feather_academy }
		trigger = {
			mil_power = 100
			years_of_income = 3.0
		}
		effect = {
			add_mil_power = -100
			add_years_of_income = -3.0
			clr_country_flag = marrhold_steel_griffon
			set_country_flag = marrhold_griffon_sky_lancers
			custom_tooltip = marrhold_griffon_sky_lancers_reward_tt
		}
		}
		
	marrhold_aerial_supremacy = {
		icon = army_reforms
		ai = yes
		position = 17
		required_missions = { marrhold_Plan_B marrhold_sky_lancers marrhold_grenadiers}
		trigger = {
			OR = {
				army_tradition = 90
				army_professionalism = 0.6
			}
			}
		effect = {
			add_country_modifier = {
				name = marrhold_sky_lords
				duration = -1
				}
			hidden_effect = {
				remove_country_modifier = marrhold_winged_army
			}
			}
		}
	}
	
marrhold_three = {
	slot = 3
	generic = no
	ai = yes
	potential = {
		tag = B36
		
	}
	has_country_shield = yes
	
	marrhold_reclamation_day = {
		icon = mission_junnagadh_fort
		ai = yes
		position = 1
		required_missions = { } 
		trigger = {
			stability = 1
			manpower_percentage = 0.75
			}
		effect = {
			add_country_modifier = {
				name = "marrhold_reclamation"
				duration = 36500 #100 years
			}
			dryadsdale_area = {
				limit = {
					NOT = { is_core = ROOT }
					NOT = { owned_by = ROOT }
				}
				add_permanent_claim = ROOT
			}
			doewood_area = {
				limit = {
					NOT = { is_core = ROOT }
					NOT = { owned_by = ROOT }
				}
				add_permanent_claim = ROOT
			}
			hornwood_area = {
				limit = {
					NOT = { is_core = ROOT }
					NOT = { owned_by = ROOT }
				}
				add_permanent_claim = ROOT
			}
			area80_area = {
				limit = {
					NOT = { is_core = ROOT }
					NOT = { owned_by = ROOT }
				}
				add_permanent_claim = ROOT
			}
		}
	}
		
	marrhold_hills = {
		icon = fortress_switzerland
		ai = yes
		position = 2
		required_missions = { marrhold_reclamation_day } 
		provinces_to_highlight = {
			OR = {
				area = area80_area
			}
			NOT = {
				country_or_non_sovereign_subject_holds = ROOT
			}
		}
		trigger = {
			area80_area = {
				type = all
				country_or_non_sovereign_subject_holds = ROOT
			}
		}
		effect = {
			add_country_modifier = {
				name = "colonial_enthusiasm"
				duration = 7300
			}
		}
	}
		
	marrhold_taking_off = {
		icon = assert_our_sovereignty
		ai = yes
		position = 3
		required_missions = { marrhold_hills marrhold_woods marrhold_valley } 
		trigger = {
			dryadsdale_area = {type = all culture = marrodic}
			area80_area = {type = all culture = marrodic}
			hornwood_area = {type = all culture = marrodic}
			doewood_area = {type = all culture = marrodic}
             }
		effect = {
			add_prestige = 25
			add_country_modifier = {
				name = marrhold_last_realm
				duration = 9125 #25 years
			}
		}
	}
	
	
	marrhold_fresh_air = {
		icon = mission_settlers_north_america
		ai = yes
		position = 4
		required_missions = { marrhold_taking_off  }
		trigger = {
			dryadsdale_area = {type = all development = 8}
			area80_area = {type = all development = 8}
			hornwood_area = {type = all development = 8}
			doewood_area = {type = all development = 8}
					}
		effect = {
			if = {
				limit = {
					NOT = {
						has_dlc = "Mandate of Heaven"
					}
				}
				if = {
					limit = { monthly_income = 50 }
					add_years_of_income = 1
				}
				else = {
					add_treasury = 500
				}
			}
			else = {
				if = {
					limit = { dryadsdale_area = { type = all owned_by = root} }
					dryadsdale_area = {
						add_prosperity = 75
					}
				}
				if = {
					limit = { area80_area = { type = all owned_by = root} }
					area80_area = {
						add_prosperity = 75
					}
				}
				if = {
					limit = { hornwood_area = { type = all owned_by = root} }
					hornwood_area = {
						add_prosperity = 75
					}
				}
				if = {
					limit = { doewood_area = { type = all owned_by = root} }
					doewood_area = {
						add_prosperity = 75
					}
				}
			}
			add_country_modifier = {
				name = marrhold_back_fields
				duration = 7300 #20 years
			}
		}
	}
	
	marrhold_chance = {
		icon = prosper_in_piedmont
		ai = yes
		position = 5
		required_missions = { marrhold_fresh_air }
		trigger = {
			army_size = 25
			cavalry_fraction = 0.25
					}
		effect = {
			swapstoke_area = {
				limit = {
					NOT = { is_core = ROOT }
					NOT = { owned_by = ROOT }
				}
				add_permanent_claim = ROOT
							}
			area78_area = {
				limit = {
					NOT = { is_core = ROOT }
					NOT = { owned_by = ROOT }
				}
				add_permanent_claim = ROOT
							}
			area82_area = {
				limit = {
					NOT = { is_core = ROOT }
					NOT = { owned_by = ROOT }
				}
				add_permanent_claim = ROOT
							}
				}
			}
			
marrhold_alenic_indeed = {
		icon = mission_advance_to_the_dnieper
		ai = yes
		position = 6
		required_missions = { marrhold_chance}
		provinces_to_highlight = {
			area = area78_area
			NOT = {
				country_or_non_sovereign_subject_holds = ROOT
				}
			}
		trigger = {
			area78_area = {
				owned_by = ROOT
				type = all
					}
				}
		effect = {
			area75_area = {
				limit = {
					NOT = { is_core = ROOT }
					NOT = { owned_by = ROOT }
				}
				add_permanent_claim = ROOT
							}
			area77_area = {
				limit = {
					NOT = { is_core = ROOT }
					NOT = { owned_by = ROOT }
				}
				add_permanent_claim = ROOT
							}
			add_country_modifier = {
				name = marrhold_new_crowns
				duration = 7300 #20 years
			}
		}
	}
	
marrhold_dominance = {
		icon = dreams_of_grandeur
		ai = yes
		position = 8
		required_missions = { marrhold_alenic_indeed }
		provinces_to_highlight = {
			OR = {
				area = area75_area
				area = area77_area
			}
			NOT = {
				country_or_non_sovereign_subject_holds = ROOT
			}
		}
		trigger = {
			area75_area = {
				owned_by = ROOT
				type = all
					}
			area77_area = {
				owned_by = ROOT
				type = all
					}
				}
		effect = {
				coalwoud_area = {
				limit = {
					NOT = { is_core = ROOT }
					NOT = { owned_by = ROOT }
				}
				add_permanent_claim = ROOT
							}
				ardent_glade_area = {
				limit = {
					NOT = { is_core = ROOT }
					NOT = { owned_by = ROOT }
				}
				add_permanent_claim = ROOT
							}
				steelhyl_area = {
				limit = {
					NOT = { is_core = ROOT }
					NOT = { owned_by = ROOT }
				}
				add_permanent_claim = ROOT
							}
				area76_area = {
				limit = {
					NOT = { is_core = ROOT }
					NOT = { owned_by = ROOT }
				}
				add_permanent_claim = ROOT
							}
		
		}
	}
		
marrhold_survey_corps = {
		icon = mission_alone_in_the_forest
		ai = yes
		position = 10
		required_missions = { marrhold_improvements } 
		trigger = {
			manpower = 10
			880 = {
				owned_by = ROOT
				is_core = ROOT}
				}
		effect = {
			add_manpower = -10
			set_country_flag = marrhold_survey_corps
			custom_tooltip = marrhold_survey_corps_reward_tt
			}
		}
		
marrhold_freedom = {
		icon = mission_alone_in_the_wood
		ai = yes
		position = 11
		required_missions = { marrhold_survey_corps } 
		trigger = {
			mil_power = 100
			years_of_income = 2.0
			OR = {
				army_reformer = 2
				commandant = 2
				grand_captain = 2
				}
			}
		effect = {
			add_mil_power = -100
			add_years_of_income = -2.0
			add_country_modifier = {
				name = marrhold_glory
				duration = 7300 #20 years
			}
		}
	}
	
marrhold_deepwoods_start = {
		icon = mission_torch_fire
		ai = yes
		position = 12
		required_missions = { marrhold_griffon_has_landed }
		provinces_to_highlight = {
			OR = {
				area = clirypriah_area
				area = prehnryn_area
			}
			NOT = {
				country_or_non_sovereign_subject_holds = ROOT
			}
		}
		trigger = {
			clirypriah_area = {
				owned_by = ROOT
				type = all
					}
			prehnryn_area = {
				owned_by = ROOT
				type = all
					}
				}
		effect = {
			add_country_modifier = {
				name = marrhold_vietnam
				duration = 7300 #20 years
				}
			east_deepwood = {
				limit = {
					NOT = { is_core = ROOT }
					NOT = { is_permanent_claim = ROOT }
				}
				add_permanent_claim = ROOT
				}
			west_deepwood = {
				limit = {
					NOT = { is_core = ROOT }
					NOT = { is_permanent_claim = ROOT }
				}
				add_permanent_claim = ROOT
				}
			}
		}
			
marrhold_feybane = {
		icon = mission_burning_castle
		ai = yes
		position = 13
		required_missions = { marrhold_deepwoods_start }
		provinces_to_highlight = {
			OR = {
				region = west_deepwood
				region = east_deepwood
			}
			NOT = {
				country_or_non_sovereign_subject_holds = ROOT
				}
			}
		trigger = {
		 east_deepwood = {
				type = all
				owned_by = ROOT
				is_core = ROOT
			}
		 west_deepwood = {
				type = all
				owned_by = ROOT
				is_core = ROOT
			}
		}
		effect = {
			add_country_modifier = {
				name = marrhold_woods
				duration = 9125 #25 years
			}
		}
	}
	
		
	marrhold_apex_predator = {
		icon = mission_green_village
		ai = yes
		position = 14
		required_missions = { marrhold_feybane }
		provinces_to_highlight = {
			OR = {
				region = west_deepwood
				region = east_deepwood
			}
			NOT = {
				unrest = 1
				nationalism = 1
				}
			}
		trigger = {
			OR = {
				region = west_deepwood
				region = east_deepwood
			}
			NOT = {
				unrest = 1
				nationalism = 1
				}
			}
		effect = {
		custom_tooltip = marrhold_deepwoods_dev
		add_stability_or_adm_power = yes
		hidden_effect = {
				every_owned_province = {
					limit = {
						OR = {
							region = west_deepwood
							region = east_deepwood
						}
						trade_goods = tropical_wood
						owned_by = ROOT
					}
					add_base_tax = 1
					add_base_production = 3
				}
			}
		}
	}
	
	marrhold_grenadiers = {
		icon = mission_cannons_firing
		ai = yes
		position = 16
		required_missions = { marrhold_feather_academy }
		trigger = {
			mil_power = 100
			years_of_income = 3.0
		}
		effect = {
			add_mil_power = -100
			add_years_of_income = -3.0
			clr_country_flag = marrhold_survey_corps
			set_country_flag =marrhold_griffon_grenadiers
			custom_tooltip = marrhold_griffon_grenadiers_reward_tt
				}
		}
		
marrhold_griffon_king = {
		icon = mission_restore_faith_in_the_throne
		ai = yes
		position = 18
		required_missions = { marrhold_aerial_supremacy marrhold_rags_to_riches }
		trigger = {
			adm_power = 200
			dip_power = 200
			mil_power = 200
			prestige = 99
			num_of_cavalry = 50
		}
		effect = {
			add_adm_power = -200
			add_dip_power = -200
			add_mil_power = -200
			if = {
				limit = { government = monarchy }
				add_government_reform = griffon_empire_reform
				}
			else = {
				add_country_modifier = {
					name = marrhold_griffon_empire_alt
					duration = -1
					}
				}
			}
		}
	}
	
marrhold_four = {
	slot = 4
	generic = no
	ai = yes
	potential = {
		tag = B36
		
	}
	has_country_shield = yes
	
marrhold_woods = {
		icon = mission_alone_in_the_wood
		ai = yes
		position = 2
		required_missions = { marrhold_reclamation_day }
		provinces_to_highlight = {
			OR = {
				area = hornwood_area
				area = doewood_area
			}
			NOT = {
				country_or_non_sovereign_subject_holds = ROOT
			}
		}
		trigger = {
			hornwood_area = {
				type = all
				country_or_non_sovereign_subject_holds = ROOT
			}
			doewood_area = {
				type = all
				country_or_non_sovereign_subject_holds = ROOT
			}
		}
		effect = {
			doewood_area = {
				add_base_production = 1
				add_base_tax = 1
				add_base_manpower = 1
			}
			hornwood_area = {
				add_base_production = 1
				add_base_tax = 1
				add_base_manpower = 1
			}
		}
	}
	
marrhold_dworfs = {
		icon = mission_missive
		ai = yes
		position = 4
		required_missions = { marrhold_taking_off }
	trigger = {
		OR = {
        any_ally = {  
				tag = B18
			}
        any_rival_country = {  
				tag = B18
			}
		NOT = { 
			exists = B18
			}
		}
	}

	effect = {
		if = {
        limit = {
            any_ally = {  
				tag = B18
			}
            NOT = { any_rival_country = {  
				tag = B18
				} 
			}
        }
		add_country_modifier = {
				name = marrhold_adventurer_allies
				duration = 9125 #25 years
    }
	}
		else_if = {
        limit = {
            any_rival_country = {  
				tag = B18
				}
            NOT = { any_ally = {  
				tag = B18
			} }
        }
        add_casus_belli = {
					target = B18
					type = cb_vassalize_mission
					months = 300
				}
				
			}
		}
	}
	
marrhold_dworfs_2 = {
		icon = mission_merchant_trip
		ai = yes
		position = 5
		required_missions = { marrhold_dworfs }
	trigger = {
		OR = {
		has_opinion = {
						who = B18
						value = 180
						}
		NOT = { 
			exists = B18
			}
		}
	}
	effect = {
		if = {
        limit = {
            has_opinion = {
						who = B18
						value = 180
						}
			exists = B18
        }
		add_country_modifier = {
				name = marrhold_dwarven_lessons
				duration = 9125 #25 years
		}
	}
		else_if = {
        limit = {
            NOT = { 
			exists = B18
			}
        }
	}
}
}
	
marrhold_grudge = {
		icon = mission_duel_snow
		ai = yes
		position = 6
		required_missions = { marrhold_dworfs_2 marrhold_chance }
		provinces_to_highlight = {
			OR = {
				area = area82_area
				area = swapstoke_area
			}
			NOT = {
				country_or_non_sovereign_subject_holds = ROOT
			}
		}
		trigger = {
			area82_area = {
				owned_by = ROOT
				type = all
					}
			swapstoke_area = {
				owned_by = ROOT
				type = all
					}
				}
		effect = {
			area83_area = {
				limit = {
					NOT = { is_core = ROOT }
					NOT = { is_permanent_claim = ROOT }
				}
				add_permanent_claim = ROOT
				}
			humacvord_area = {
				limit = {
					NOT = { is_core = ROOT }
					NOT = { is_permanent_claim = ROOT }
				}
				add_permanent_claim = ROOT
				}
			blademarch_area = {
				limit = {
					NOT = { is_core = ROOT }
					NOT = { is_permanent_claim = ROOT }
				}
				add_permanent_claim = ROOT
				}
			}
		}

marrhold_marches = {
		icon = alpine_fortifications
		ai = yes
		position = 7
		required_missions = { marrhold_grudge }
		provinces_to_highlight = {
			OR = {
				area = area83_area
				area = humacvord_area
				area = blademarch_area
			}
			NOT = {
				country_or_non_sovereign_subject_holds = ROOT
			}
		}
		trigger = {
			area83_area = {
				owned_by = ROOT
				type = all
					}
			humacvord_area = {
				owned_by = ROOT
				type = all
					}
			blademarch_area = {
				owned_by = ROOT
				type = all
					}
				}
		effect = {
			burnoll_area = {
				limit = {
					NOT = { is_core = ROOT }
					NOT = { is_permanent_claim = ROOT }
				}
				add_permanent_claim = ROOT
				}
			themin_area = {
				limit = {
					NOT = { is_core = ROOT }
					NOT = { is_permanent_claim = ROOT }
				}
				add_permanent_claim = ROOT
				}
			oudeben_area = {
				limit = {
					NOT = { is_core = ROOT }
					NOT = { is_permanent_claim = ROOT }
				}
				add_permanent_claim = ROOT
				}
			}
		}

marrhold_silvermere = {
		icon = mission_tree_fishing
		ai = yes
		position = 9
		required_missions = { marrhold_dominance marrhold_marches } 
		provinces_to_highlight = {
			OR = {
				area = burnoll_area
				area = themin_area
				area = oudeben_area
			}
			NOT = {
				country_or_non_sovereign_subject_holds = ROOT
			}
		}
		trigger = {
			burnoll_area = {
				owned_by = ROOT
				type = all
					}
			themin_area = {
				owned_by = ROOT
				type = all
					}
			oudeben_area = {
				owned_by = ROOT
				type = all
					}
				}
		effect = {
			southgate_area = {
				limit = {
					NOT = { is_core = ROOT }
					NOT = { is_permanent_claim = ROOT }
				}
				add_permanent_claim = ROOT
				}
			south_castanor_region = {
				limit = {
					NOT = { is_core = ROOT }
					NOT = { is_permanent_claim = ROOT }
				}
				add_permanent_claim = ROOT
				}
			}
		}

marrhold_finishing_marches = {
		icon = mission_rb_conquer_the_highlands
		ai = yes
		position = 10
		required_missions = { marrhold_silvermere }
		provinces_to_highlight = {
			OR = {
				area = beastgrave_area
				area = clovenwood_area
				area = vernham_area
			}
			NOT = {
				country_or_non_sovereign_subject_holds = ROOT
			}
		}
		trigger = {
			burnoll_area = {
				owned_by = ROOT
				type = all
					}
			clovenwood_area = {
				owned_by = ROOT
				type = all
					}
			vernham_area = {
				owned_by = ROOT
				type = all
					}
				}
		effect = {
			add_country_modifier = {
				name = marrhold_trade_dominance
				duration = 9125 #25 years
			}
		}
	}
marrhold_griffon_has_landed = {
		icon = give_him_back_his_legions
		ai = yes
		position = 11
		required_missions = { marrhold_finishing_marches} 
		provinces_to_highlight = {
			region = south_castanor_region
			NOT = { owned_by = ROOT }
			has_discovered = ROOT
		}
		
		trigger = {
		    south_castanor_region = {
				type = all
				owned_by = ROOT
			}
		}
		
		effect = {
			add_prestige = 25
			add_stability_or_adm_power = yes
			clirypriah_area = {
				limit = {
					NOT = { is_core = ROOT }
					NOT = { is_permanent_claim = ROOT }
				}
				add_permanent_claim = ROOT
				}
			prehnryn_area = {
				limit = {
					NOT = { is_core = ROOT }
					NOT = { is_permanent_claim = ROOT }
				}
				add_permanent_claim = ROOT
				}
			}
		}
			
	
marrhold_rags_to_riches = {
		icon = a_real_roman_empire
		ai = yes
		position = 17
		required_missions = { marrhold_griffon_has_landed marrhold_fallen_friend }
		trigger = {
			monthly_income = 50
			development_in_provinces = {
				value = 400
				culture = marrodic
			}
		}
		effect = {
		add_prestige = 50
		add_splendor = 200
		add_adm_power = 75
		add_dip_power = 75
		add_mil_power = 75
			}
		}
	}

	
marrhold_five = {
	slot = 5
	generic = no
	ai = yes
	potential = {
		tag = B36
		
	}
	has_country_shield = yes
	
	marrhold_our_pride = {
		icon = mission_magnificent_castle
		ai = yes
		position = 1
		trigger = {
			4097 = {
				owned_by = ROOT
				has_building = temple
				has_building = marketplace
			}
		}
		
		effect = {
		custom_tooltip = marrhold_hold_improvement_reward_tt
			4097 = {
				add_province_triggered_modifier = human_hold_1
			}
		4097 = {
				add_base_tax = 1
				add_base_production = 1
				add_base_manpower = 1
				}
		}
	}
	
	marrhold_steel = {
		icon = mission_rb_build_furnaces
		ai = yes
		position = 2
		required_missions = { marrhold_our_pride }
		provinces_to_highlight = {
			OR = {
				896 = {
					NOT = { owned_by = ROOT }
					NOT = { base_production = 8 }
				}
				4097 = {
					NOT = { owned_by = ROOT }
					NOT = { base_production = 8 }
				}
			}
		}
		trigger = {
			896 = {
				owned_by = ROOT 
				base_production = 8 
					}
			4097 = {
				owned_by = ROOT 
				base_production = 8
					}
		
				}
		effect = {
			add_years_of_income = -0.7
			896 = {
				add_permanent_province_modifier = {
					name = adv_big_forge
					duration = 18250
					}
				}
			4097 = {
				add_permanent_province_modifier = {
					name = adv_big_forge
					duration = 18250
					}
				}
			}
		}
	
	marrhold_experts = {
		icon = mission_diplomacy_missive
		ai = yes
		position = 3
		required_missions = { marrhold_steel }
		trigger = {
			treasury = 300
			adm_power = 50
			}
		effect = {
			add_treasury = -300
			add_adm_power = -50
		custom_tooltip = marrhold_hold_improvement_2_reward_tt
			4097 = {
				remove_province_triggered_modifier = human_hold_1
				add_province_triggered_modifier = human_hold_2
				add_base_tax = 2
				add_base_production = 2
				add_base_manpower = 2
				}
		}
	}
	
	marrhold_lift = {
		icon = mission_early_game_buildings
		ai = yes
		position = 4
		required_missions = { marrhold_experts }
		trigger = {
		total_development = 150
		}
		effect = {
		add_country_modifier = {
				name = marrhold_improve_hold
				duration = 3650 #10 years
				}
			}
		}
		
		
	marrhold_hole = {
		icon = the_alpine_wall
		ai = yes
		position = 6
		required_missions = { marrhold_lift marrhold_dworfs_2 }
		trigger = {
			treasury = 500
			adm_power = 100
			NOT = {
				has_country_modifier = marrhold_improve_hold
				}
			}
		effect = {
		custom_tooltip = marrhold_hold_improvement_3_reward_tt
			4097 = {
				remove_province_triggered_modifier = human_hold_2
				add_province_triggered_modifier = human_hold_3
				add_base_tax = 4
				add_base_production = 4
				add_base_manpower = 4
			}
		}
	}
	marrhold_reoppening = {
		icon = feast_of_pheasants
		ai = yes
		position = 7
		required_missions = { marrhold_hole}
		trigger = {
		4097 = {
				 has_great_project = marrhold_tunnel }
			}
		effect = {
			marrhold_area = {
				add_base_tax = 3
				add_base_production = 3
				add_base_manpower = 3
			}
		}
	}
			
	marrhold_syphon = {
		icon = mission_african_gold
		ai = yes
		position = 8
		required_missions = { marrhold_reoppening }
		trigger = {
			4097 = {
				OR = {
						has_building = trade_depot
						has_building = stock_exchange
					}
				province_has_center_of_trade_of_level = 2
					}
				}
		effect = {
			custom_tooltip = marrhold_syphon_reward_tt
			4097 = {
				add_province_modifier = {
						name = marrhold_trade_syphon
						duration = -1
						}
					}
				}
		}
		
	marrhold_death_ring = {
		icon = mission_mechanical_mining
		ai = yes
		position = 9
		required_missions = { marrhold_syphon }
		trigger = {
			4065 = {
				fort_level = 4
					}
			896 = {
				fort_level = 4
					}
				}
		effect = {
			4065 = {
				add_province_modifier = {
					name = marrhold_death_ring
					duration = -1 #permanent
						}
					}
			896 = {
				add_province_modifier = {
						name = marrhold_death_ring
						duration = -1
					}
					}
				}
	}
	
	marrhold_eyes_on_prize = {
		icon = develop_naples
		ai = yes
		position = 10
		required_missions = { marrhold_silvermere}
		provinces_to_highlight = {
			OR = {
				area = southgate_area
			}
			NOT = {
				country_or_non_sovereign_subject_holds = ROOT
			}
		}
		trigger = {
			southgate_area = {
				type = all
				country_or_non_sovereign_subject_holds = ROOT
			}
		}
		effect = {
		castonath_area = {
				limit = {
					NOT = { is_core = ROOT }
					NOT = { owned_by = ROOT }
				}
				add_permanent_claim = ROOT
			}
			
		}
		}
	
	marrhold_eagle_nest = {
		icon = mission_rb_college_of_justice
		ai = yes
		position = 11
		required_missions = { marrhold_eyes_on_prize }
		provinces_to_highlight = {
			OR = {
				area = castonath_area
			}
			NOT = {
				country_or_non_sovereign_subject_holds = ROOT
			}
		}
		trigger = {
			castonath_area = {
				type = all
				country_or_non_sovereign_subject_holds = ROOT
			}
		}
		effect = {
			add_country_modifier = {
				name = "marrhold_monuments"
				duration = 9125 #25 years
			}
		}	
}

marrhold_fallen_friend = {
		icon = mission_rb_trinity_college_dublin
		ai = yes
		position = 16
		required_missions = { marrhold_eagle_nest }
		trigger = {
			castonath_area = {
				type = all
				owned_by = ROOT
			}
			treasury = 2000
			adm_power = 200
		}
		effect = {
		custom_tooltip = marrhold_fallen_friend_reward_tt
		add_treasury = -2000
		add_adm_power = -200
		831 = {
				add_province_modifier = {
					name = marrhold_fallen_friend_memorial
					duration = -1 #permanent
						}
			}
		}
	}
}