country_decisions = {

	black_castanor_nation = {
		major = yes
		potential = {
			OR = {
				culture_group = gerudian
			}
			NOT = { has_country_flag = formed_black_castanor_flag }
			NOT = { has_reform = adventurer_reform }
			#NOT = { exists = B34 } #Castanor doesn't exist
			NOT = { exists = Z34 } #Black Castanor doesn't exist
			NOT = { tag = B34 }	#Castanor cannot into Black Castanor
			NOT = { tag = Z18 }	#Frozenmaw cannot into Black Castanor
			NOT = { tag = Z50 }	#Grombar cannot into Black Castanor
			NOT = { tag = Z01 } #EoA
			OR = {
				is_former_colonial_nation = no
				AND = {
					is_former_colonial_nation = yes
					ai = no
				}
			}
			normal_or_historical_nations = yes
		}
		
		provinces_to_highlight = {
			OR = {
				province_id = 840	#North Citadel
				province_id = 833	#North Castonath
				province_id = 831	#South Castonath
				province_id = 832	#West Castonath
				province_id = 754	#Westgate
				province_id = 746	#Acenort
				province_id = 740	#Bal Vroren
				province_id = 736	#Isle Vroren
				province_id = 747	#Venacvord
				province_id = 755	#Wardenhall
				province_id = 756	#Silvervord
				province_id = 828	#Ár Urion
				province_id = 829
				province_id = 830
				province_id = 837
				province_id = 850
				province_id = 855
				province_id = 860
				province_id = 862
				province_id = 865
				province_id = 866
				province_id = 869
				province_id = 873
				province_id = 874
				province_id = 229
			}
		
			NOT = { owned_by = ROOT }
		}
		
		allow = {
			#adm_tech = 10
			is_free_or_tributary_trigger = yes
			is_nomad = no
			is_at_war = no
			#num_of_cities = 5
			
			#Requires provinces  -Some are White Walls-
			owns_core_province = 840	#North Citadel
			owns_core_province = 229	#Bal Mire
			owns_core_province = 833	#North Castonath
			owns_core_province = 831	#South Castonath
			owns_core_province = 832	#West Castonath
			owns_core_province = 754	#Westgate
			owns_core_province = 746	#Acenort
			owns_core_province = 740	#Bal Vroren
			owns_core_province = 736	#Isle Vroren
			owns_core_province = 747	#Venacvord
			owns_core_province = 755	#Wardenhall
			owns_core_province = 756	#Silvervord
			owns_core_province = 828	#Ár Urion
			owns_core_province = 829
			owns_core_province = 830
			owns_core_province = 837
			owns_core_province = 850
			owns_core_province = 855
			owns_core_province = 860
			owns_core_province = 862
			owns_core_province = 865
			owns_core_province = 866
			owns_core_province = 869
			owns_core_province = 873
			owns_core_province = 874
		}
		effect = {
			change_tag = Z34
			remove_non_electors_emperors_from_empire_effect = yes
			if = {
				limit = {
					NOT = { government_rank = 3 }
				}
				set_government_rank = 3
			}
			if = {
				limit = { NOT = { government = monarchy } }
				change_government = monarchy
			}
			add_government_reform = castanor_trials_reform
			country_event = { id = castanortrials.12 }
			840 = {	#To North Citadel
				move_capital_effect = yes
			}
			custom_tooltip = tooltip_black_castanorian_culture_provinces
			hidden_effect = {
				every_owned_province = {
					limit = {
						has_owner_culture = yes
					}
					change_culture = black_castanorian
				}
			}
			change_primary_culture = black_castanorian
			
			#Claims
			inner_castanor_region = {
				limit = {
					NOT = { owned_by = ROOT }
				}
				add_permanent_claim = Z34
			}
			west_castanor_region = {
				limit = {
					NOT = { owned_by = ROOT }
				}
				add_permanent_claim = Z34
			}
			south_castanor_region = {
				limit = {
					NOT = { owned_by = ROOT }
				}
				add_permanent_claim = Z34
			}
			vertesk_area = {
				limit = {
					NOT = { owned_by = ROOT }
				}
				add_permanent_claim = Z34
			}
			if = {
				limit = { has_custom_ideas = no }
				country_event = { id = ideagroups.1 } #Swap Ideas
			}
			
			add_prestige = 50
			add_country_modifier = {
				name = "centralization_modifier"
				duration = 7300
			}
			set_country_flag = formed_black_castanor_flag
			clr_country_flag = 	knightly_order_adventurer
		}
		ai_will_do = {
			factor = 1
		}
		ai_importance = 400
	}
}