namespace = half_elf_tolerance_events

# Event organizer for the half-elf tolerance events - should be a huge improvement to performance - having 1 overall check for having the minority instead of one for EACH new event that gets added
country_event = {
	id = half_elf_tolerance_events.0
	title = kobold_tolerance_events.1.t
	desc = kobold_tolerance_events.1.d
	picture = BORDER_TENSION_eventPicture

	hidden = yes
	is_triggered_only = yes

	trigger = {
		any_owned_province = {
			has_half_elven_minority_trigger = yes
		}
	}

	option = {
		random_list = {
			# Half-elf minister
			1 = {
				modifier = {
					factor = 1.5
					medium_tolerance_half_elven_race_trigger = yes
				}
				modifier = {
					factor = 2
					high_tolerance_half_elven_race_trigger = yes
				}
				country_event = {
					id = half_elf_tolerance_events.1
				}
			}
			# Half-elf nobles demand special treatment
			1 = {
				trigger = {
					any_owned_province = {
						has_half_elven_minority_trigger = yes
						OR = {
							superregion = western_cannor_superregion
							is_part_of_hre = yes
						}
						NOT = { has_province_modifier = half_elven_noble_privileges }
					}
					has_estate = estate_nobles
				}
				modifier = {
					factor = 0.1
					low_tolerance_half_elven_race_trigger = yes
				}
				modifier = {
					factor = 1.5
					NOT = { prestige = 0 }
				}
				modifier = {
					factor = 1.5
					NOT = { legitimacy_equivalent = 70 }
				}
				country_event = {
					id = half_elf_tolerance_events.2
				}
			}
			# Half-elven bastard
			1 = {
				trigger = {
					has_estate = estate_nobles
				}
				country_event = {
					id = half_elf_tolerance_events.3
				}
			}
			# Elite gala
			1 = {
				modifier = {
					factor = 1.5
					medium_tolerance_half_elven_race_trigger = yes
				}
				modifier = {
					factor = 1.5
					high_tolerance_half_elven_race_trigger = yes
				}
				country_event = {
					id = half_elf_tolerance_events.4
				}
			}
			# Half-elf celebrity insults government
			1 = {
				modifier = {
					factor = 1.5
					low_tolerance_half_elven_race_trigger = yes
				}
				country_event = {
					id = half_elf_tolerance_events.5
				}
			}
			# Anti half-elf graffiti
			1 = {
				modifier = {
					factor = 2
					low_tolerance_half_elven_race_trigger = yes
				}
				country_event = {
					id = half_elf_tolerance_events.6
				}
			}
			# Silver-blooded conspirators
			1 = {
				modifier = {
					factor = 2
					low_tolerance_half_elven_race_trigger = yes
				}
				modifier = {
					factor = 0.1
					capital_scope = {
						NOT = { continent = europe }
					}
				}
				country_event = {
					id = half_elf_tolerance_events.7
				}
			}
		}
	}
}

# Half-elf minister
country_event = {
	id = half_elf_tolerance_events.1
	title = half_elf_tolerance_events.1.t
	desc = half_elf_tolerance_events.1.d
	picture = ADVISOR_eventPicture

	is_triggered_only = yes

	# Recruit
	option = {
		name = half_elf_tolerance_events.1.a
		ai_chance = {
			factor = 50
			modifier = {
				factor = 0.1
				wants_to_decrease_tolerance_half_elven = yes
			}
		}
		small_increase_of_half_elven_tolerance_effect = yes
		# I got no fuckin clue how to handle the culture for this one
		if = {
			limit = { monthly_income = 50 }
			random_list = {
				1 = {
					define_advisor = {
						type = statesman
						culture = ROOT
						religion = ROOT
						skill = 3
						
						discount = yes
					}
				}
				1 = {
					define_advisor = {
						type = diplomat
						culture = ROOT
						religion = ROOT
						skill = 3
						
						discount = yes
					}
				}
			}
		}
		else_if = {
			limit = { monthly_income = 25 }
			random_list = {
				1 = {
					define_advisor = {
						type = statesman
						culture = ROOT
						religion = ROOT
						skill = 2
						
						discount = yes
					}
				}
				1 = {
					define_advisor = {
						type = diplomat
						culture = ROOT
						religion = ROOT
						skill = 2
						
						discount = yes
					}
				}
			}
		}
		else = {
			random_list = {
				1 = {
					define_advisor = {
						type = statesman
						culture = ROOT
						religion = ROOT
						skill = 1
						
						discount = yes
					}
				}
				1 = {
					define_advisor = {
						type = diplomat
						culture = ROOT
						religion = ROOT
						skill = 1
						
						discount = yes
					}
				}
			}
		}
	}
	# A true exemplar of the community!
	option = {
		name = half_elf_tolerance_events.1.b
		ai_chance = {
			factor = 50
		}
		medium_increase_of_half_elven_tolerance_effect = yes
	}
	# So what?
	option = {
		name = half_elf_tolerance_events.1.c
		ai_chance = {
			factor = 50
			modifier = {
				factor = 0.1
				wants_to_increase_tolerance_half_elven = yes
			}
		}
		small_decrease_of_half_elven_tolerance_effect = yes
	}
}

# Half-elf nobles demand special treatment
country_event = {
	id = half_elf_tolerance_events.2
	title = half_elf_tolerance_events.2.t
	desc = half_elf_tolerance_events.2.d
	picture = DEBATE_REPUBLICAN_eventPicture
	GOTO = half_elven_nobles_province

	is_triggered_only = yes

	immediate = {
		random_owned_province = {
			limit = { 
				has_half_elven_minority_trigger = yes
				NOT = { has_province_modifier = half_elven_noble_privileges }
			}
			save_event_target_as = half_elven_nobles_province
		}
	}

	# Give in to their demands
	option = {
		name = half_elf_tolerance_events.2.a
		ai_chance = {
			factor = 50
			modifier = {
				factor = 0.1
				wants_to_decrease_tolerance_half_elven = yes
			}
		}
		add_prestige = -5
		medium_increase_of_half_elven_tolerance_effect = yes
		add_estate_influence_modifier = {
			estate = estate_nobles
			desc = half_elven_noble_privileges_estate_happy
			influence = 10
			duration = 3650
		}
		event_target:half_elven_nobles_province = {
			add_province_modifier = {
				name = half_elven_noble_privileges
				duration = 3650
			}
		}

	}
	# Offer empty promises
	option = {
		name = half_elf_tolerance_events.2.b
		ai_chance = {
			factor = 50
		}
		add_prestige = -5
		small_decrease_of_half_elven_tolerance_effect = yes
		add_estate_loyalty = {
			estate = estate_nobles
			loyalty = -10
		}
	}
	# Teach them their place
	option = {
		name = half_elf_tolerance_events.2.c
		ai_chance = {
			factor = 50
			modifier = {
				factor = 0.1
				wants_to_increase_tolerance_half_elven = yes
			}
		}
		add_prestige = 10
		add_estate_loyalty = {
			estate = estate_nobles
			loyalty = -10
		}
		add_estate_influence_modifier = {
			estate = estate_nobles
			desc = half_elven_noble_privileges_estate_angered
			influence = -10
			duration = 3650
		}
	}
}

# Half-elven bastard
country_event = {
	id = half_elf_tolerance_events.3
	title = half_elf_tolerance_events.3.t
	desc = half_elf_tolerance_events.3.d
	picture = NEW_HEIR_eventPicture

	is_triggered_only = yes

	mean_time_to_happen = {
		days = 1
		modifier = {
			factor = 1.5
			medium_tolerance_half_orcish_race_trigger = yes
		}
		modifier = {
			factor = 2
			high_tolerance_half_orcish_race_trigger = yes
		}
	}

	# Legitimize the heir
	option = {
		name = half_elf_tolerance_events.3.a
		ai_chance = {
			factor = 50
			modifier = {
				factor = 0.8
				wants_to_decrease_tolerance_half_elven = yes
			}
		}
		medium_increase_of_half_elven_tolerance_effect = yes
		add_estate_loyalty = {
			estate = estate_nobles
			loyalty = -10
		}
	}
	# I can do that. For money...
	option = {
		name = half_elf_tolerance_events.3.b
		ai_chance = {
			factor = 50
		}
		add_years_of_income = 0.1
		small_increase_of_half_elven_tolerance_effect = yes
		add_estate_loyalty = {
			estate = estate_nobles
			loyalty = -10
		}
	}
	# Reject the request
	option = {
		name = half_elf_tolerance_events.3.c
		ai_chance = {
			factor = 50
			modifier = {
				factor = 0.5
				wants_to_increase_tolerance_half_elven = yes
			}
		}
		small_decrease_of_half_elven_tolerance_effect = yes
		add_estate_loyalty = {
			estate = estate_nobles
			loyalty = 10
		}
	}
}

# Elite gala
country_event = {
	id = half_elf_tolerance_events.4
	title = half_elf_tolerance_events.4.t
	desc = half_elf_tolerance_events.4.d
	picture = KING_DOING_GREAT_eventPicture

	is_triggered_only = yes

	# Ooh! Thanks for the invite! 
	option = {
		name = half_elf_tolerance_events.4.a
		ai_chance = {
			factor = 50
			modifier = {
				factor = 0.1
				wants_to_decrease_tolerance_half_elven = yes
			}
		}
		small_increase_of_half_elven_tolerance_effect = yes
		add_prestige = 5
	}
	# It's their party they can do what they want
	option = {
		name = half_elf_tolerance_events.4.b
		add_prestige = -5
	}
	# Crack down on such behavior!
	option = {
		name = half_elf_tolerance_events.4.c
		ai_chance = {
			factor = 50
			modifier = {
				factor = 0.1
				wants_to_increase_tolerance_half_elven = yes
			}
		}
		small_decrease_of_half_elven_tolerance_effect = yes
	}
}

# Half-elf celebrity insults government
country_event = {
	id = half_elf_tolerance_events.5
	title = half_elf_tolerance_events.5.t
	desc = half_elf_tolerance_events.5.d
	picture = ACCUSATION_eventPicture

	is_triggered_only = yes

	# They're making some good points, hire them
	option = {
		name = half_elf_tolerance_events.5.a
		ai_chance = {
			factor = 50
			modifier = {
				factor = 0.1
				wants_to_decrease_tolerance_half_elven = yes
			}
		}
		medium_increase_of_half_elven_tolerance_effect = yes
		add_years_of_income = -0.33
		add_legitimacy = -5
		add_republican_tradition = -5
		add_devotion = -5
	}
	# It's just one individual's opinion
	option = {
		name = half_elf_tolerance_events.5.b
		add_prestige = -5
		add_legitimacy = -5
		add_republican_tradition = -5
		add_devotion = -5
	}
	# Arrest the half-elf
	option = {
		name = half_elf_tolerance_events.5.c
		ai_chance = {
			factor = 50
			modifier = {
				factor = 0.1
				wants_to_increase_tolerance_half_elven = yes	
			}
		}
		add_prestige = -10
		small_decrease_of_half_elven_tolerance_effect = yes
	}
}

# Anti half-elf graffiti
country_event = {
	id = half_elf_tolerance_events.6
	title = half_elf_tolerance_events.6.t
	desc = half_elf_tolerance_events.6.d
	picture = POPE_PREACHING_eventPicture

	is_triggered_only = yes

	# We should not hate them for what they are, make sure this doesn't happen again
	option = {
		name = half_elf_tolerance_events.6.a
		ai_chance = {
			factor = 50
			modifier = {
				factor = 0.1
				wants_to_decrease_tolerance_half_elven = yes
			}
		}
		small_increase_of_half_elven_tolerance_effect = yes
		add_adm_power = -20
		add_prestige = 5
	}
	# Just clean up
	option = {
		name = half_elf_tolerance_events.6.b
		ai_chance = {
			factor = 50
		}
		add_treasury = -50
		small_increase_of_half_elven_tolerance_effect = yes
	}
	# Well, the graffiti ain't wrong is it
	option = {
		name = half_elf_tolerance_events.6.c
		ai_chance = {
			factor = 50
			modifier = {
				factor = 0.1
				wants_to_increase_tolerance_half_elven = yes
			}
		}
		add_prestige = -5
		small_decrease_of_half_elven_tolerance_effect = yes
	}
}

# Silver-blooded conspirators
country_event = {
	id = half_elf_tolerance_events.7
	title = half_elf_tolerance_events.7.t
	desc = half_elf_tolerance_events.7.d
	picture = KINGS_CHOICE_eventPicture

	is_triggered_only = yes

	# Arrest the madman for their slander
	option = {
		name = half_elf_tolerance_events.7.a
		ai_chance = {
			factor = 50
			modifier = {
				factor = 0.1
				wants_to_decrease_tolerance_half_elven = yes
			}
		}
		add_dip_power = -20
		add_corruption = 0.5
		small_increase_of_half_elven_tolerance_effect = yes
	}
	# I'm sure its nothing
	option = {
		name = half_elf_tolerance_events.7.b
		ai_chance = {
			factor = 50
		}
		small_decrease_of_half_elven_tolerance_effect = yes
	}
	# I knew it was the half-elves!
	option = {
		name = half_elf_tolerance_events.7.c
		ai_chance = {
			factor = 50
			modifier = {
				factor = 0.1
				wants_to_increase_tolerance_half_elven = yes
			}
		}
		add_prestige = -10
		medium_decrease_of_half_elven_tolerance_effect = yes
		add_years_of_income = 0.3
	}
}